{
    "fluentMethods": true,
    "clientRootFolder": "",
    "relationships": [
        {
            "relationshipType": "many-to-one",
            "otherEntityName": "blog",
            "otherEntityRelationshipName": "post",
            "relationshipName": "blog",
            "otherEntityField": "title",
            "otherEntityRelationshipNameUndefined": false
        }
    ],
    "fields": [
        {
            "fieldName": "title",
            "fieldType": "String",
            "fieldValidateRules": [
                "required",
                "minlength",
                "maxlength"
            ],
            "fieldValidateRulesMinlength": 3,
            "fieldValidateRulesMaxlength": 100
        },
        {
            "fieldName": "content",
            "fieldType": "byte[]",
            "fieldTypeBlobContent": "text",
            "fieldValidateRules": [
                "required"
            ]
        },
        {
            "fieldName": "date",
            "fieldType": "ZonedDateTime",
            "fieldValidateRules": [
                "required"
            ]
        },
        {
            "fieldName": "isPublished",
            "fieldType": "Boolean",
            "fieldValidateRules": [
                "required"
            ]
        },
        {
            "fieldName": "isCommentAllowed",
            "fieldType": "Boolean",
            "fieldValidateRules": [
                "required"
            ]
        }
    ],
    "changelogDate": "20190502205309",
    "dto": "no",
    "searchEngine": "elasticsearch",
    "service": "no",
    "entityTableName": "post",
    "databaseType": "sql",
    "jpaMetamodelFiltering": false,
    "pagination": "infinite-scroll"
}
